{
	"info": {
		"_postman_id": "aafc310c-c0c8-4bfb-8bfb-0efb00f6d401",
		"name": "Modules Collection",
		"schema": "https://schema.getpostman.com/json/collection/v2.1.0/collection.json"
	},
	"item": [
		{
			"name": "GET All Tasks Request",
			"request": {
				"method": "GET",
				"header": [],
				"url": {
					"raw": "localhost:3001/tasks",
					"host": [
						"localhost"
					],
					"port": "3001",
					"path": [
						"tasks"
					]
				}
			},
			"response": []
		},
		{
			"name": "POST New Task",
			"request": {
				"method": "POST",
				"header": [],
				"body": {
					"mode": "raw",
					"raw": "{\r\n    \"name\": \"Run\"\r\n}",
					"options": {
						"raw": {
							"language": "json"
						}
					}
				},
				"url": {
					"raw": "localhost:3001/tasks",
					"host": [
						"localhost"
					],
					"port": "3001",
					"path": [
						"tasks"
					]
				}
			},
			"response": []
		},
		{
			"name": "DELETE Task",
			"request": {
				"method": "DELETE",
				"header": [],
				"url": {
					"raw": "localhost:3001/tasks/617b6505c05e312f410a2582",
					"host": [
						"localhost"
					],
					"port": "3001",
					"path": [
						"tasks",
						"617b6505c05e312f410a2582"
					]
				}
			},
			"response": []
		},
		{
			"name": "PUT Task",
			"request": {
				"method": "PUT",
				"header": [],
				"body": {
					"mode": "raw",
					"raw": "{\r\n    \"name\": \"Wake up\"\r\n}",
					"options": {
						"raw": {
							"language": "json"
						}
					}
				},
				"url": {
					"raw": "localhost:3001/tasks/617b63c7c05e312f410a257f",
					"host": [
						"localhost"
					],
					"port": "3001",
					"path": [
						"tasks",
						"617b63c7c05e312f410a257f"
					]
				}
			},
			"response": []
		},
		{
			"name": "Complete Task",
			"request": {
				"method": "PUT",
				"header": [],
				"body": {
					"mode": "raw",
					"raw": "",
					"options": {
						"raw": {
							"language": "json"
						}
					}
				},
				"url": {
					"raw": "localhost:3001/tasks/617b63c7c05e312f410a257f/complete",
					"host": [
						"localhost"
					],
					"port": "3001",
					"path": [
						"tasks",
						"617b63c7c05e312f410a257f",
						"complete"
					]
				}
			},
			"response": []
		},
		{
			"name": "GET Specific Task",
			"request": {
				"method": "GET",
				"header": [],
				"url": {
					"raw": "localhost:3001/tasks/617b63c7c05e312f410a257f",
					"host": [
						"localhost"
					],
					"port": "3001",
					"path": [
						"tasks",
						"617b63c7c05e312f410a257f"
					]
				}
			},
			"response": []
		}
	]
}